@1800
10 00 26 C9 A6 C8 80 C8 DE C8 82 48 7A C9 C2 C7
18 DA 00 00 18 00 7E DB 14 D1 72 DA FF FF 00 00
00 00 00 00 00 00 00 00 00 00 00 00 00 00 00 00
00 00 00 00 00 00 00 00 00 00 00 00 00 00 00 00
00 00 00 00 00 00 00 00 00 00 00 00 00 00 00 00
0A 00 00 00
@C400
3A 41 0D 12 0D 4A 30 4D 2F 83 8F 4E 00 00 3E 41
2E 4E 30 4D 2F 83 8F 4E 00 00 3E 41 0D 12 3D 4E
30 4D 00 00 04 45 58 49 54 00 3D 41 30 4D 00 00
03 4C 49 54 2F 83 8F 4E 00 00 3E 4D 30 4D 24 C4
03 44 55 50 2F 83 8F 4E 00 00 30 4D 00 00 04 3F
44 55 50 00 0E 93 F6 23 30 4D 40 C4 04 44 52 4F
50 00 3E 4F 30 4D 00 00 04 53 57 41 50 00 2A 4F
8F 4E 00 00 0E 4A 30 4D 00 00 04 4F 56 45 52 00
2F 83 8F 4E 00 00 1E 4F 02 00 30 4D 68 C4 03 52
4F 54 2A 4F 8F 4E 00 00 1E 4F 02 00 8F 4A 02 00
30 4D 4E C4 02 3E 52 00 0E 12 3E 4F 30 4D 8E C4
02 52 3E 00 2F 83 8F 4E 00 00 3E 41 30 4D B0 C4
02 52 40 00 2F 83 8F 4E 00 00 2E 41 30 4D 2F 83
8F 4E 00 00 0E 4F 30 4D 5C C4 05 44 45 50 54 48
2F 83 8F 4E 00 00 3E 40 92 20 0E 8F 0E 11 30 4D
00 00 01 40 2E 4E 30 4D F2 C4 01 21 BE 4F 00 00
3E 4F 30 4D 00 00 02 43 40 00 6E 4E 30 4D 06 C5
02 43 21 00 3A 4F CE 4A 00 00 3E 4F 30 4D 00 00
01 2B 3E 5F 30 4D 30 C4 01 2D 3A 4F 0A 8E 0E 4A
30 4D FA C4 03 41 4E 44 3E FF 30 4D 7A C4 02 4F
52 00 3E DF 30 4D 00 00 03 58 4F 52 3E EF 30 4D
3E C5 06 4E 45 47 41 54 45 00 3E E3 1E 53 30 4D
34 C5 03 41 42 53 0E 93 F8 33 30 4D 00 00 02 31
2B 00 1E 53 30 4D 6E C5 02 31 2D 00 1E 83 30 4D
28 C5 03 4D 41 58 2E 9F 07 38 2F 53 30 4D 82 C5
03 4D 49 4E 2E 9F F9 3B 3E 4F 30 4D 78 C5 02 30
3D 00 1E 83 0E 7E 30 4D 9E C5 02 30 3C 00 0E 5E
0E 7E 3E E3 30 4D 00 00 01 3D 3E 8F 07 20 3E 43
30 4D B8 C5 01 3C 3A 4F 0A 8E F9 3B 0E 43 30 4D
A4 C4 01 3E 3E 8F F3 3B 0E 43 30 4D 00 00 02 55
3C 00 3A 4F 0A 8E EB 2B 0E 43 30 4D 2D 4D 30 4D
0E 93 3E 4F FB 27 2D 53 30 4D 0E 93 3E 4F F6 23
2D 53 30 4D 39 40 00 80 39 8F 08 4E 3E 4F 08 59
19 15 30 4D 91 53 00 00 32 B0 00 01 E7 27 2D 53
21 52 30 4D 81 5E 00 00 3E 4F 32 B0 00 01 DE 27
2D 53 21 52 30 4D 00 00 01 49 2F 83 8F 4E 00 00
2E 41 1E 81 02 00 30 4D 20 C5 01 4A 2F 83 8F 4E
00 00 1E 41 04 00 1E 81 06 00 30 4D DE C5 06 55
4E 4C 4F 4F 50 00 21 52 30 4D D2 C5 03 3E 49 4E
85 12 38 18 10 C5 04 42 41 53 45 00 85 12 50 18
C0 C4 05 53 54 41 54 45 85 12 52 18 76 C6 02 42
4C 00 85 12 20 00 C4 C5 02 3C 23 00 B2 40 28 21
32 18 30 4D 8E C6 01 23 0D 12 1B 42 50 18 2C 4F
0A 43 09 43 08 43 3D 40 20 00 0A 9B 01 28 0A 8B
09 69 08 68 1D 83 07 30 0C 5C 0E 6E 0A 6A F5 2B
0A 8B 12 D3 F5 3F 3D 41 8F 49 00 00 0E 48 7A 90
0A 00 02 28 3A 50 07 00 3A 50 30 00 92 83 32 18
18 42 32 18 C8 4A 00 00 30 4D A6 C6 02 23 53 00
87 12 A8 C6 06 C7 2D 83 09 93 CE 23 0E 93 CC 23
3D 41 30 4D FC C6 02 23 3E 00 9F 42 32 18 00 00
3E 40 28 21 2E 8F 30 4D 38 C6 04 48 4F 4C 44 00
0A 4E 3E 4F DB 3F 82 C6 04 53 49 47 4E 00 0E 93
3E 4F 3A 40 2D 00 D2 33 30 4D 5E C6 02 55 2E 00
87 12 9C C6 34 C4 00 00 00 C7 1A C7 16 C8 E0 C7
2A C4 52 C5 01 2E 87 12 9C C6 44 C4 66 C5 34 C4
00 00 00 C7 92 C4 3E C7 1A C7 16 C8 E0 C7 2A C4
2A C7 04 48 45 52 45 00 2F 83 8F 4E 00 00 1E 42
3A 18 30 4D 62 C5 05 41 4C 4C 4F 54 82 5E 3A 18
3E 4F 30 4D 16 C7 02 43 2C 00 1A 42 3A 18 CA 4E
00 00 92 53 3A 18 3E 4F 30 4D 82 C7 04 28 43 52
29 00 2F 83 8F 4E 00 00 3E 40 0D 00 DD 3C A6 C7
02 43 52 00 30 40 C2 C7 38 C7 05 53 50 41 43 45
2F 83 8F 4E 00 00 3E 40 20 00 CE 3C DA C7 06 53
50 41 43 45 53 00 0E 93 02 20 3E 4F 30 4D 87 12
34 C4 00 00 04 C6 E0 C7 14 C6 06 C8 2A C4 4C C7
04 54 59 50 45 00 0E 93 2E 25 2A 4F 8F 5E 00 00
0E 4A 87 12 04 C6 3A C6 0A C5 88 C9 14 C6 26 C8
2A C4 2F 82 8F 4E 02 00 7E 4D 8F 4D 00 00 0D 5E
1D B3 0D 63 30 4D EE C7 82 53 22 00 87 12 34 C4
32 C8 7A CB 34 C4 22 00 B6 C9 0A C5 7C C5 9C C7
62 C8 3D 41 92 B3 3A 18 A2 63 3A 18 30 4D 64 C7
82 2E 22 00 87 12 4C C8 34 C4 16 C8 7A CB 2A C4
2F 83 8F 4E 00 00 B0 12 12 C9 92 B3 1C 05 FD 27
1E 42 0C 05 B0 12 B6 C8 30 4D 4A C6 04 4B 45 59
3F 00 30 40 80 C8 18 42 0C 05 EA 3F 9C C8 03 4B
45 59 30 40 A6 C8 B2 40 13 00 0E 05 A2 B3 1C 05
FD 27 30 41 96 C7 06 41 43 43 45 50 54 00 30 40
DE C8 BC C7 08 28 41 43 43 45 50 54 29 00 0D 12
30 12 64 C9 3D 40 58 C9 3C 40 20 00 3B 40 0D 00
0A 4E 2E 4F 0A 5E 92 B3 1C 05 08 24 18 42 0C 05
30 12 2E C9 38 90 0A 00 04 20 21 53 39 40 20 C9
4D 15 B2 40 11 00 0E 05 A2 B3 1C 05 FD 27 30 41
12 D2 14 18 FD 3F 21 52 3A 17 18 42 0C 05 48 9B
C2 27 48 9C 06 34 78 92 11 20 2E 9F 0F 24 1E 83
05 3C 0E 9A 03 24 CE 48 00 00 1E 53 82 48 0E 05
A2 B3 1C 05 FD 27 30 4D 5A C9 2D 83 92 B3 1C 05
E4 23 FC 27 3E 8F B2 40 18 00 14 18 3D 41 30 4D
D4 C8 06 28 45 4D 49 54 29 00 08 4E 3E 4F E6 3F
DA C4 04 45 4D 49 54 00 30 40 7A C9 82 C9 04 45
43 48 4F 00 B2 40 82 48 4C C9 30 4D 70 C8 06 4E
4F 45 43 48 4F 00 B2 40 30 4D 4C C9 30 4D 00 00
04 57 4F 52 44 00 3C 40 34 18 39 4C 3A 4C 09 5A
3A 5C 28 4C 18 53 09 9A 1C 24 7E 9A FC 27 1A 83
3B 40 60 00 C8 4C FF FF 09 9A 0C 24 7C 4A 4E 9C
09 24 18 53 4B 9C F6 2F 7C 90 7B 00 F3 2F 7C 80
20 00 F0 3F 1A 82 36 18 82 4A 38 18 F8 40 3F 00
00 00 1E 42 3A 18 08 8E 18 83 CE 48 00 00 30 4D
00 00 04 46 49 4E 44 00 0D 12 2F 83 3B 40 40 18
0C 4E 3E 4B 0E 93 22 24 58 4C 01 00 78 F0 1E 00
0E 58 2E 53 1E 4E FE FF 0E 93 F3 27 0A 4E 09 4C
68 49 7D 4A 7D F0 7F 00 6D 99 F4 23 19 53 F9 9A
00 00 F0 23 58 83 FA 23 6C 4C 5C D3 5C 53 0C 5E
6A 4E 1E 43 7A B0 80 00 01 20 2E 83 8F 4C 00 00
3D 41 30 4D 2F 53 2F 53 3E 4F 30 4D 6C C6 07 3E
4E 55 4D 42 45 52 0E 93 28 24 19 4F 04 00 18 4F
02 00 1B 42 50 18 2A 4F 6A 4A 7A 80 30 00 7A 90
0A 00 05 28 7A 90 11 00 18 28 7A 80 07 00 0A 9B
14 2C 82 49 D0 04 82 48 D2 04 82 4B C8 04 19 42
E4 04 18 42 E6 04 09 5A 08 63 9F 53 00 00 1E 83
E2 23 8F 48 02 00 8F 49 04 00 30 4D 03 12 0D 12
3D 40 3E CB 3F 82 8F 4E 06 00 8F 43 04 00 8F 43
02 00 8F 4E 00 00 9F 53 00 00 6E 4E 2A 4F 12 12
50 18 79 4A 79 90 30 00 11 20 79 4A 79 90 58 00
04 20 B2 40 10 00 50 18 05 3C 79 90 42 00 B3 23
A2 43 50 18 AF 53 00 00 2E 83 AD 3F 79 90 2D 00
AA 23 B1 43 04 00 9F 53 00 00 1E 83 A4 3F 40 CB
B2 41 50 18 2F 52 0E 93 1D 17 03 24 2F 53 0E F3
30 4D BF 4F 00 00 3E E3 05 20 BF E3 00 00 9F 53
00 00 3E E3 30 4D 8E C9 07 45 58 45 43 55 54 45
0A 4E 3E 4F 00 4A 90 C5 01 2C 1A 42 3A 18 A2 53
3A 18 8A 4E 00 00 3E 4F 30 4D 78 CB 87 4C 49 54
45 52 41 4C 82 93 52 18 0A 24 1A 42 3A 18 A2 52
3A 18 BA 40 34 C4 00 00 8A 4E 02 00 3E 4F 30 4D
D0 C7 05 43 4F 55 4E 54 2F 83 1E 53 8F 4E 00 00
5E 4E FF FF 30 4D 72 C9 09 49 4E 54 45 52 50 52
45 54 82 4E 34 18 B2 4F 36 18 3E 4F 82 43 38 18
87 12 92 C6 B6 C9 E8 CB 3D 40 F4 CB 15 23 3E 4F
3D 41 30 4D F6 CB 0A 4E 3E 4F 3D 40 0C CC 6E 27
3D 40 E2 CB 1A E2 52 18 B8 27 B2 23 0E CC 3E 4F
3D 40 E2 CB BF 23 DE 53 00 00 3D 40 64 CE CC 3F
AA C5 04 51 55 49 54 00 31 40 04 21 B2 40 00 20
1E 18 82 43 52 18 87 12 32 C8 04 0D 6F 6B 20 00
16 C8 34 C4 7E 21 44 C4 34 C4 80 00 CE C8 E0 C7
D2 CB 34 C4 90 20 CE C4 E2 C5 32 C8 0D 73 74 61
63 6B 20 65 6D 70 74 79 20 21 90 CC 88 C6 F4 C4
F0 C5 38 CC 32 C8 04 0D 20 20 20 00 EC C5 40 CC
C6 C8 05 41 42 4F 52 54 3F 40 92 20 3E 4F CC 3F
8F 93 02 00 EF 26 82 43 D0 D7 82 43 DC D7 82 43
E8 D7 82 43 18 D8 82 43 24 D8 82 43 30 D8 39 40
08 18 B2 49 D0 C8 B2 49 4C C9 B2 49 8A C9 A2 B3
1C 05 FD 27 B2 40 11 00 0E 05 92 C3 1C 05 38 40
A0 AA 39 42 19 83 FE 23 18 83 FB 23 92 B3 1C 05
F4 23 87 12 32 C8 04 1B 5B 37 6D 00 16 C8 16 C8
32 C8 04 1B 5B 30 6D 00 16 C8 A0 D0 E2 D0 E8 D0
88 CC 82 CC 86 41 42 4F 52 54 22 00 87 12 4C C8
34 C4 90 CC 7A CB 2A C4 16 CC 12 CA 01 27 2F 83
8F 4E 00 00 3E 40 20 00 87 12 B6 C9 18 CA F0 C5
18 CD 2A C4 98 C6 81 5C 92 42 34 18 38 18 30 4D
87 12 64 C8 92 C6 B6 C9 4A CD 08 4E 7A 4E 5A D3
5A 53 0A 58 19 42 3E 18 6E 4E 3E F0 1E 00 09 5E
82 48 20 18 82 49 22 18 82 4A 26 18 A8 49 FE FF
89 48 00 00 2A 52 82 4A 3A 18 3E 4F 3D 41 30 41
B0 C9 08 56 41 52 49 41 42 4C 45 00 B0 12 40 CD
BA 40 86 12 FC FF 30 4D B2 CB 08 43 4F 4E 53 54
41 4E 54 00 B0 12 40 CD BA 40 85 12 FC FF 8A 4E
FE FF 3E 4F 30 4D 9A CD 06 43 52 45 41 54 45 00
B0 12 40 CD BA 40 85 12 FC FF 8A 4A FE FF 30 4D
68 CB 05 44 4F 45 53 3E 1A 42 26 18 BA 40 84 12
00 00 8A 4D 02 00 3D 41 30 4D D2 CD 05 44 45 46
45 52 B0 12 40 CD BA 40 30 40 FC FF 8A 40 FE FF
30 4D BE 4F 02 00 3E 4F 30 4D C8 CB 82 49 53 00
82 93 52 18 06 24 87 12 D8 CE 34 C4 02 CE 7A CB
2A C4 87 12 1E CD 02 CE 2A C4 00 00 81 5B 82 43
52 18 30 4D 36 CD 01 5D B2 43 52 18 30 4D 82 9F
28 18 06 20 19 42 22 18 99 42 20 18 00 00 30 4D
87 12 32 C8 0F 73 74 61 63 6B 20 6D 69 73 6D 61
74 63 68 21 96 CC 48 C8 87 52 45 43 55 52 53 45
19 42 3A 18 99 42 26 18 00 00 A2 53 3A 18 30 4D
2C CE 01 3A B0 12 40 CD BA 40 87 12 FC FF A2 83
3A 18 B2 43 52 18 99 48 FE FF 00 00 82 4F 28 18
30 4D 82 CE 81 3B 82 93 52 18 46 27 87 12 34 C4
2A C4 7A CB 3E CE 2E CE 2A C4 0C CE 09 49 4D 4D
45 44 49 41 54 45 1A 42 20 18 FA D0 80 00 00 00
30 4D A4 CE 83 5B 27 5D 87 12 1E CD 34 C4 34 C4
7A CB 7A CB 2A C4 22 CC 88 50 4F 53 54 50 4F 4E
45 00 87 12 92 C6 B6 C9 18 CA 54 C4 F0 C5 18 CD
AE C5 F0 C5 12 CF 34 C4 34 C4 7A CB 7A CB 34 C4
7A CB 7A CB 2A C4 BC CE 82 49 46 00 2F 83 8F 4E
00 00 1E 42 3A 18 BE 40 F0 C5 00 00 A2 52 3A 18
2E 53 30 4D EC CD 84 45 4C 53 45 00 1A 42 3A 18
BA 40 EC C5 00 00 2A 52 82 4A 3A 18 8E 4A 00 00
2A 83 0E 4A 30 4D 10 C8 84 54 48 45 4E 00 9E 42
3A 18 00 00 3E 4F 30 4D B8 CD 85 42 45 47 49 4E
30 40 88 C7 58 CF 85 55 4E 54 49 4C 39 40 F0 C5
1A 42 3A 18 A2 52 3A 18 8A 49 00 00 8A 4E 02 00
3E 4F 30 4D 04 CD 85 41 47 41 49 4E 39 40 EC C5
EF 3F 82 CD 85 57 48 49 4C 45 87 12 1C CF 6E C4
2A C4 68 CE 86 52 45 50 45 41 54 00 87 12 9C CF
5E CF 2A C4 36 CF 82 44 4F 00 2F 83 8F 4E 00 00
1E 42 3A 18 BE 40 04 C6 00 00 2E 53 82 4E 3A 18
A2 53 1E 18 1A 42 1E 18 8A 43 00 00 30 4D 8C CB
84 4C 4F 4F 50 00 39 40 14 C6 1A 42 3A 18 A2 52
3A 18 8A 49 00 00 8A 4E 02 00 1E 42 1E 18 A2 83
1E 18 2E 4E 0E 93 04 24 9E 42 3A 18 00 00 F5 3F
3E 4F 30 4D AE C8 85 2B 4C 4F 4F 50 39 40 24 C6
E4 3F F0 CF 85 4C 45 41 56 45 1A 42 3A 18 BA 40
66 C6 00 00 BA 40 EC C5 02 00 B2 50 06 00 3A 18
A2 53 1E 18 2A 52 19 42 1E 18 89 4A 00 00 30 4D
34 D0 04 4D 4F 56 45 00 0A 4E 38 4F 39 4F 3E 4F
0A 93 11 24 08 99 0F 24 06 2C F8 49 00 00 18 53
1A 83 FB 23 30 4D 08 5A 09 5A 19 83 18 83 E8 49
00 00 1A 83 FA 23 30 4D 34 C4 40 18 FC C4 2A C4
84 12 98 D0 48 D1 72 DA C6 CF 1C CD 10 DA 26 D0
62 D0 9E C9 BE D8 FE D8 76 CF 66 DA 48 C5 D4 CE
36 CE 7E CA 00 00 3A 40 0C 00 39 40 40 18 38 40
42 18 D9 3F 3A 40 0E 00 39 40 42 18 38 40 40 18
CC 3F 82 43 42 18 30 4D 92 42 40 18 3E 18 30 4D
84 12 98 D0 34 D7 E0 D7 E8 D6 34 D8 AE D6 68 D7
B2 D3 00 00 A4 D6 54 D7 06 D7 44 D7 C2 D4 00 00
00 00 46 D8 C4 D0 18 CF 85 48 49 32 4C 4F 87 12
88 C7 30 CF 7A CB 2E CE C6 D0 F0 D0 2A C4 6A CF
04 43 4F 44 45 00 B0 12 40 CD A2 82 3A 18 87 12
96 CE EC C5 28 D1 96 CF 03 41 53 4D 92 42 3E 18
2A 18 B2 40 F4 D0 3E 18 EE 3F 00 00 07 45 4E 44
43 4F 44 45 87 12 D4 D0 3E CE 2A C4 5C D1 06 45
4E 44 41 53 4D 00 92 42 2A 18 3E 18 F3 3F 00 00
05 43 4F 4C 4F 4E 1A 42 3A 18 BA 40 87 12 00 00
A2 53 3A 18 B2 43 52 18 30 40 D4 D0 00 00 05 4C
4F 32 48 49 1A 42 3A 18 BA 40 B0 12 00 00 BA 40
2A C4 02 00 A2 52 3A 18 ED 3F 38 40 34 18 39 48
2A 48 09 5A 1A 52 38 18 09 9A 03 24 7E 9A FC 27
1A 83 0E 4A 2A 88 82 4A 38 18 30 4D 87 12 B6 C9
DC CA F0 C5 E8 D1 7C CD 18 CA F0 C5 18 CD F0 D1
3D 41 29 4E 39 90 86 12 02 20 2E 53 30 41 39 90
85 12 03 20 1E 4E 02 00 30 41 39 90 84 12 01 20
2E 52 30 41 19 42 3A 18 A2 53 3A 18 89 4E 00 00
3E 40 29 00 12 12 38 18 92 53 38 18 B0 12 2A C4
B6 C9 DC CA F0 C5 44 D2 3A D2 21 53 3E 90 10 00
B8 2D 30 41 46 D2 B2 41 38 18 22 D3 30 41 87 12
92 C6 BA D1 56 D2 82 43 30 18 92 42 3A 18 2E 18
A2 53 3A 18 0A 4E 3E 4F FA 90 23 00 00 00 34 20
92 53 38 18 B0 12 DC D1 0E 93 04 20 B2 40 00 03
30 18 27 3C 1E 93 04 20 B2 40 10 03 30 18 21 3C
2E 93 04 20 B2 40 20 03 30 18 1B 3C 2E 92 04 20
B2 40 20 02 30 18 15 3C 3E 92 04 20 B2 40 30 02
30 18 0F 3C 3E 93 04 20 B2 40 30 03 30 18 09 3C
B2 40 30 00 30 18 19 42 3A 18 A2 53 3A 18 89 4E
00 00 3E 4F 3D 41 30 4D FA 90 26 00 00 00 08 20
B2 40 10 02 30 18 92 53 38 18 30 12 C6 D2 76 3F
FA 90 40 00 00 00 16 20 B2 40 20 00 30 18 92 53
38 18 B0 12 24 D2 0A 20 B2 50 10 00 30 18 3E 40
2B 00 B0 12 24 D2 2F 24 92 53 38 18 8E 10 82 5E
30 18 D7 3F B0 12 24 D2 F9 23 B2 50 10 00 30 18
3E 40 28 00 B0 12 DC D1 30 12 16 D3 6B 3F 87 12
92 C6 BA D1 46 D3 0A 4E 3E 40 20 00 FA 90 26 00
00 00 04 20 B2 50 82 00 30 18 C5 3F B0 12 24 D2
DE 23 B2 50 80 00 30 18 3E 40 28 00 B0 12 DC D1
B0 12 14 D2 D4 23 3D 40 18 CD 30 4D 00 00 04 52
45 54 49 00 87 12 34 C4 00 13 7A CB 2A C4 34 C4
2C 00 4E D2 3E D3 98 D3 2E 4E 1E D2 30 18 19 42
2E 18 95 3F 9E D1 03 4D 4F 56 84 12 8E D3 00 40
A6 D3 05 4D 4F 56 2E 42 84 12 8E D3 40 40 00 00
03 41 44 44 84 12 8E D3 00 50 C0 D3 05 41 44 44
2E 42 84 12 8E D3 40 50 CC D3 04 41 44 44 43 00
84 12 8E D3 00 60 DA D3 06 41 44 44 43 2E 42 00
84 12 8E D3 40 60 7E D3 04 53 55 42 43 00 84 12
8E D3 00 70 F8 D3 06 53 55 42 43 2E 42 00 84 12
8E D3 40 70 06 D4 03 53 55 42 84 12 8E D3 00 80
16 D4 05 53 55 42 2E 42 84 12 8E D3 40 80 80 D1
03 43 4D 50 84 12 8E D3 00 90 30 D4 05 43 4D 50
2E 42 84 12 8E D3 40 90 6E D1 04 44 41 44 44 00
84 12 8E D3 00 A0 4A D4 06 44 41 44 44 2E 42 00
84 12 8E D3 40 A0 3C D4 03 42 49 54 84 12 8E D3
00 B0 68 D4 05 42 49 54 2E 42 84 12 8E D3 40 B0
74 D4 03 42 49 43 84 12 8E D3 00 C0 82 D4 05 42
49 43 2E 42 84 12 8E D3 40 C0 8E D4 03 42 49 53
84 12 8E D3 00 D0 9C D4 05 42 49 53 2E 42 84 12
8E D3 40 D0 00 00 03 58 4F 52 84 12 8E D3 00 E0
B6 D4 05 58 4F 52 2E 42 84 12 8E D3 40 E0 E8 D3
03 41 4E 44 84 12 8E D3 00 F0 D0 D4 05 41 4E 44
2E 42 84 12 8E D3 40 F0 92 C6 4E D2 EE D4 1A 42
30 18 B2 F0 70 00 30 18 8A 10 3A F0 0F 00 82 DA
30 18 4A 3F 22 D4 03 52 52 43 84 12 E8 D4 00 10
06 D5 05 52 52 43 2E 42 84 12 E8 D4 40 10 12 D5
04 53 57 50 42 00 84 12 E8 D4 80 10 20 D5 03 52
52 41 84 12 E8 D4 00 11 2E D5 05 52 52 41 2E 42
84 12 E8 D4 40 11 3A D5 03 53 58 54 84 12 E8 D4
80 11 00 00 04 50 55 53 48 00 84 12 E8 D4 00 12
54 D5 06 50 55 53 48 2E 42 00 84 12 E8 D4 40 12
A8 D4 04 43 41 4C 4C 00 84 12 E8 D4 80 12 34 C4
2C 00 4E D2 3E D3 88 D5 59 42 30 18 5A 42 31 18
82 4A 30 18 BE 90 00 15 00 00 02 20 0A 89 02 3C
09 8A 0A 49 3A 90 10 00 03 2C 5A 0E A8 3F 1A 53
0E 4A 87 12 66 C7 32 C8 0D 6F 75 74 20 6F 66 20
62 6F 75 6E 64 73 96 CC 62 D5 05 50 55 53 48 4D
84 12 7E D5 00 15 CA D5 04 50 4F 50 4D 00 84 12
7E D5 00 17 92 C6 BA D1 EA D5 82 43 30 18 92 42
3A 18 2E 18 A2 53 3A 18 92 53 38 18 3E 40 2C 00
B0 12 2A C4 B6 C9 DC CA F0 C5 18 CD 3E D3 10 D6
0A 4E 3E 4F 1A 83 2A 92 CA 2F 8A 10 5A 06 6F 3F
48 D5 04 52 52 43 4D 00 84 12 E4 D5 50 00 22 D6
04 52 52 41 4D 00 84 12 E4 D5 50 01 30 D6 04 52
4C 41 4D 00 84 12 E4 D5 50 02 3E D6 04 52 52 55
4D 00 84 12 E4 D5 50 03 85 12 00 3C 4C D6 03 53
3E 3D 85 12 00 38 5E D6 02 53 3C 00 85 12 00 34
D8 D5 03 30 3E 3D 85 12 00 30 72 D6 02 30 3C 00
85 12 00 30 00 00 02 55 3C 00 85 12 00 2C 86 D6
03 55 3E 3D 85 12 00 28 7C D6 03 30 3C 3E 85 12
00 24 9A D6 02 30 3D 00 85 12 00 20 00 00 02 49
46 00 1A 42 3A 18 8A 4E 00 00 A2 53 3A 18 0E 4A
30 4D 90 D6 04 54 48 45 4E 00 1A 42 3A 18 08 4E
3E 4F 09 48 29 53 0A 89 0A 11 3A 90 00 02 68 2F
88 DA 00 00 30 4D 58 D4 04 45 4C 53 45 00 1A 42
3A 18 BA 40 00 3C 00 00 A2 53 3A 18 2F 83 8F 4A
00 00 E3 3F C4 D6 05 55 4E 54 49 4C 3A 4F 08 4E
3E 4F 19 42 3A 18 2A 83 0A 89 0A 11 3A 90 00 FE
47 3B 3A F0 FF 03 08 DA 89 48 00 00 A2 53 3A 18
30 4D DC D4 05 41 47 41 49 4E 87 12 58 D6 0C D7
2A C4 00 00 05 57 48 49 4C 45 87 12 B2 D6 6E C4
2A C4 68 D6 06 52 45 50 45 41 54 00 87 12 58 D6
0C D7 CA D6 2A C4 00 00 03 4A 4D 50 87 12 1E CD
58 D6 0C D7 2A C4 3E B0 00 10 03 20 3E E0 00 04
30 4D 3E 90 00 34 06 28 03 24 3E 40 00 34 30 4D
3E 40 00 38 30 4D 00 00 04 3F 4A 4D 50 00 87 12
76 D7 1E CD 6E C4 0C D7 2A C4 AC D7 3D 41 08 4E
3E 4F 2A 48 0A 93 04 20 98 42 3A 18 00 00 30 4D
88 43 00 00 A4 3F 72 D5 03 42 57 31 84 12 AA D7
00 00 C8 D7 03 42 57 32 84 12 AA D7 00 00 D4 D7
03 42 57 33 84 12 AA D7 00 00 EC D7 3D 41 1A 42
3A 18 28 4E 08 93 08 20 BA 4F 00 00 A2 53 3A 18
8E 4A 00 00 3E 4F 30 4D 8E 43 00 00 61 3F 00 00
03 46 57 31 84 12 EA D7 00 00 10 D8 03 46 57 32
84 12 EA D7 00 00 1C D8 03 46 57 33 84 12 EA D7
00 00 28 D8 04 47 4F 54 4F 00 87 12 58 D6 1E CD
70 CB 2A C4 98 D7 05 3F 47 4F 54 4F 87 12 76 D7
1E CD 70 CB 2A C4 58 D8 B2 4E 3A 18 3A 4E 82 4A
3C 18 2E 4E 3D 40 10 00 09 4A 08 49 29 83 18 48
FE FF 0E 98 FC 2B 89 48 00 00 1D 83 F6 23 2A 4A
0A 93 F0 23 3E 4F B0 12 2A C4 34 C4 80 FF 88 C7
2A C5 50 C7 32 C8 0B 62 79 74 65 73 20 66 72 65
65 20 16 C8 2A C4 E8 CE 09 50 57 52 5F 53 54 41
54 45 84 12 56 D8 7E DB 14 D1 72 DA A8 D8 08 50
57 52 5F 48 45 52 45 00 92 42 3A 18 B6 D8 92 42
3C 18 B8 D8 92 42 20 18 BA D8 EB 3F B4 CF 09 52
53 54 5F 53 54 41 54 45 92 42 16 18 B6 D8 92 42
18 18 B8 D8 92 42 1A 18 BA D8 DB 3F DE D8 08 52
53 54 5F 48 45 52 45 00 92 42 3A 18 16 18 92 42
3C 18 18 18 92 42 20 18 1A 18 D6 3F A4 CF 04 57
49 50 45 00 82 43 80 FF 82 43 82 FF 39 40 0A 18
B2 49 4C C9 B2 49 8A C9 B2 49 D6 C7 B2 49 6E DA
B2 40 72 DA A6 D0 B2 40 C6 CF A8 D0 B2 40 1C CD
AA D0 B2 40 10 DA AC D0 B2 40 26 D0 AE D0 B2 40
62 D0 B0 D0 B2 40 9E C9 B2 D0 B2 40 BE D8 B4 D0
B2 40 FE D8 B6 D0 B2 40 76 CF B8 D0 B2 40 66 DA
BA D0 B2 40 48 C5 BC D0 B2 40 D4 CE BE D0 B2 40
36 CE C0 D0 B2 40 7E CA C2 D0 B2 40 E0 D7 F6 D0
B2 40 E8 D6 F8 D0 B2 40 34 D8 FA D0 B2 40 AE D6
FC D0 B2 40 68 D7 FE D0 B2 40 B2 D3 00 D1 82 43
02 D1 B2 40 A4 D6 04 D1 B2 40 54 D7 06 D1 B2 40
06 D7 08 D1 B2 40 44 D7 0A D1 B2 40 C2 D4 0C D1
82 43 0E D1 82 43 10 D1 B2 40 46 D8 12 D1 B2 40
48 D1 A4 D0 B2 40 34 D7 F4 D0 B2 40 7E DB 3A 18
B2 40 14 D1 3C 18 B2 40 72 DA 20 18 7D 3F 18 D1
06 28 57 41 52 4D 29 00 B2 40 0A 00 50 18 1E 42
12 18 82 43 12 18 87 12 32 C8 05 0D 1B 5B 37 6D
16 C8 66 C7 32 C8 2B 20 46 61 73 74 46 6F 72 74
68 20 56 31 2E 30 20 31 36 4D 48 7A 20 28 43 29
20 4A 2E 4D 2E 54 68 6F 6F 72 65 6E 73 20 32 30
31 36 BE CC 1E D9 04 57 41 52 4D 00 30 40 18 DA
30 D1 04 43 4F 4C 44 00 B2 40 04 A5 20 01 B2 40
88 5A CC 01 B2 43 02 02 B2 D3 06 02 D2 43 24 02
F2 40 FD 00 22 02 F2 D0 FD 00 26 02 F2 40 A5 00
A1 01 F2 40 10 00 A0 01 D2 43 A1 01 B2 40 00 A5
60 01 B2 40 29 01 80 01 B2 40 0B 00 82 01 B2 40
E9 01 84 01 39 40 40 00 B2 D0 10 00 86 01 92 D2
5E 01 12 18 A2 93 12 18 01 24 59 03 38 40 50 C3
18 83 FE 23 19 83 FA 23 3A 40 7E DA 39 40 DA FF
89 4A 00 00 29 53 FC 23 92 42 02 18 E4 FF B2 40
18 00 14 18 31 40 04 21 3F 40 92 20 37 40 00 C4
36 40 B4 C4 35 40 08 C4 34 40 14 C4 39 40 08 18
B2 49 D0 C8 29 53 B2 49 8A C9 B2 49 D6 C7 92 C3
30 01 18 42 12 18 F2 B0 10 00 00 02 04 20 38 E3
18 53 82 48 12 18 B2 40 81 00 00 05 B2 40 05 00
06 05 B2 40 00 49 08 05 F2 D0 30 00 0A 02 92 C3
00 05 92 D3 1A 05 3D 40 7C DB 38 90 0A 00 DA 26
38 90 16 00 D7 2E 28 93 9C 26 B6 3E 6C DA
@FF80
00 00 00 00 00 00 00 00
@FFDA
7E DA 7E DA 7E DA 7E DA 7E DA 26 C9 7E DA 7E DA
7E DA 7E DA 7E DA 7E DA 7E DA 7E DA 7E DA 7E DA
7E DA 7E DA 7E DA
q
