@1800
10 00 AA 45 A6 44 80 44 62 45 82 48 FE 45 C2 43
94 62 00 00 18 00 50 64 90 59 EE 62 FF FF 00 00
00 00 00 00 00 00 00 00 00 00 00 00 00 00 00 00
00 00 00 00 00 00 00 00 00 00 00 00 00 00 00 00
00 00 00 00 00 00 00 00 00 00 00 00 00 00 00 00
0A 00 00 00 00 00 00 00 00 00 00 00 00 00 00 00
00 00 00 00 00 00 00 00 00 00 00 00 00 00 00 00
00 00 00 00 00 00 00 00 00 00 00 00 00 00 00 00
00 00 00 00 00 00 00 00 00 00 00 00 00 00 00 00
00 00 00 00 00 00 00 00 00 00 00 00 00 00 00 00
00 00 00 00 00 00 00 00 00 00 00 00 00 00 00 00
00 00 00 00 00 00 00 00 00 00 00 00 00 00 00 00
00 00 00 00 00 00 00 00 00 00 00 00 00 00 00 00
00 00 00 00 00 00 00 00 00 00 00 00 00 00 00 00
00 00 00 00 00 00 00 00 00 00 00 00 00 00 00 00
00 00 00 00 2C 4E 68 4E
@4000
3A 41 0D 12 0D 4A 30 4D 2F 83 8F 4E 00 00 3E 41
2E 4E 30 4D 2F 83 8F 4E 00 00 3E 41 0D 12 3D 4E
30 4D 00 00 04 45 58 49 54 00 3D 41 30 4D 00 00
03 4C 49 54 2F 83 8F 4E 00 00 3E 4D 30 4D 24 40
03 44 55 50 2F 83 8F 4E 00 00 30 4D 00 00 04 3F
44 55 50 00 0E 93 F6 23 30 4D 40 40 04 44 52 4F
50 00 3E 4F 30 4D 00 00 04 53 57 41 50 00 2A 4F
8F 4E 00 00 0E 4A 30 4D 00 00 04 4F 56 45 52 00
2F 83 8F 4E 00 00 1E 4F 02 00 30 4D 68 40 03 52
4F 54 2A 4F 8F 4E 00 00 1E 4F 02 00 8F 4A 02 00
30 4D 4E 40 02 3E 52 00 0E 12 3E 4F 30 4D 8E 40
02 52 3E 00 2F 83 8F 4E 00 00 3E 41 30 4D B0 40
02 52 40 00 2F 83 8F 4E 00 00 2E 41 30 4D 2F 83
8F 4E 00 00 0E 4F 30 4D 5C 40 05 44 45 50 54 48
2F 83 8F 4E 00 00 3E 40 92 1C 0E 8F 0E 11 30 4D
00 00 01 40 2E 4E 30 4D F2 40 01 21 BE 4F 00 00
3E 4F 30 4D 00 00 02 43 40 00 6E 4E 30 4D 06 41
02 43 21 00 3A 4F CE 4A 00 00 3E 4F 30 4D 00 00
01 2B 3E 5F 30 4D 30 40 01 2D 3A 4F 0A 8E 0E 4A
30 4D FA 40 03 41 4E 44 3E FF 30 4D 7A 40 02 4F
52 00 3E DF 30 4D 00 00 03 58 4F 52 3E EF 30 4D
3E 41 06 4E 45 47 41 54 45 00 3E E3 1E 53 30 4D
34 41 03 41 42 53 0E 93 F8 33 30 4D 00 00 02 31
2B 00 1E 53 30 4D 6E 41 02 31 2D 00 1E 83 30 4D
28 41 03 4D 41 58 2E 9F 07 38 2F 53 30 4D 82 41
03 4D 49 4E 2E 9F F9 3B 3E 4F 30 4D 78 41 02 30
3D 00 1E 83 0E 7E 30 4D 9E 41 02 30 3C 00 0E 5E
0E 7E 3E E3 30 4D 00 00 01 3D 3E 8F 07 20 3E 43
30 4D B8 41 01 3C 3A 4F 0A 8E F9 3B 0E 43 30 4D
A4 40 01 3E 3E 8F F3 3B 0E 43 30 4D 00 00 02 55
3C 00 3A 4F 0A 8E EB 2B 0E 43 30 4D 2D 4D 30 4D
0E 93 3E 4F FB 27 2D 53 30 4D 0E 93 3E 4F F6 23
2D 53 30 4D 39 40 00 80 39 8F 08 4E 3E 4F 08 59
19 15 30 4D 91 53 00 00 32 B0 00 01 E7 27 2D 53
21 52 30 4D 81 5E 00 00 3E 4F 32 B0 00 01 DE 27
2D 53 21 52 30 4D 00 00 01 49 2F 83 8F 4E 00 00
2E 41 1E 81 02 00 30 4D 20 41 01 4A 2F 83 8F 4E
00 00 1E 41 04 00 1E 81 06 00 30 4D DE 41 06 55
4E 4C 4F 4F 50 00 21 52 30 4D D2 41 03 3E 49 4E
85 12 38 18 10 41 04 42 41 53 45 00 85 12 50 18
C0 40 05 53 54 41 54 45 85 12 52 18 76 42 02 42
4C 00 85 12 20 00 C4 41 02 3C 23 00 B2 40 28 1D
32 18 30 4D 8E 42 01 23 0D 12 1B 42 50 18 2C 4F
0A 43 09 43 08 43 3D 40 20 00 0A 9B 01 28 0A 8B
09 69 08 68 1D 83 07 30 0C 5C 0E 6E 0A 6A F5 2B
0A 8B 12 D3 F5 3F 3D 41 8F 49 00 00 0E 48 7A 90
0A 00 02 28 3A 50 07 00 3A 50 30 00 92 83 32 18
18 42 32 18 C8 4A 00 00 30 4D A6 42 02 23 53 00
87 12 A8 42 06 43 2D 83 09 93 CE 23 0E 93 CC 23
3D 41 30 4D FC 42 02 23 3E 00 9F 42 32 18 00 00
3E 40 28 1D 2E 8F 30 4D 38 42 04 48 4F 4C 44 00
0A 4E 3E 4F DB 3F 82 42 04 53 49 47 4E 00 0E 93
3E 4F 3A 40 2D 00 D2 33 30 4D 5E 42 02 55 2E 00
87 12 9C 42 34 40 00 00 00 43 1A 43 16 44 E0 43
2A 40 52 41 01 2E 87 12 9C 42 44 40 66 41 34 40
00 00 00 43 92 40 3E 43 1A 43 16 44 E0 43 2A 40
2A 43 04 48 45 52 45 00 2F 83 8F 4E 00 00 1E 42
3A 18 30 4D 62 41 05 41 4C 4C 4F 54 82 5E 3A 18
3E 4F 30 4D 16 43 02 43 2C 00 1A 42 3A 18 CA 4E
00 00 92 53 3A 18 3E 4F 30 4D 82 43 04 28 43 52
29 00 2F 83 8F 4E 00 00 3E 40 0D 00 1F 3D A6 43
02 43 52 00 30 40 C2 43 38 43 05 53 50 41 43 45
2F 83 8F 4E 00 00 3E 40 20 00 10 3D DA 43 06 53
50 41 43 45 53 00 0E 93 02 20 3E 4F 30 4D 87 12
34 40 00 00 04 42 E0 43 14 42 06 44 2A 40 4C 43
04 54 59 50 45 00 0E 93 70 25 2A 4F 8F 5E 00 00
0E 4A 87 12 04 42 3A 42 0A 41 0C 46 14 42 26 44
2A 40 2F 82 8F 4E 02 00 7E 4D 8F 4D 00 00 0D 5E
1D B3 0D 63 30 4D EE 43 82 53 22 00 87 12 34 40
32 44 FE 47 34 40 22 00 3A 46 0A 41 7C 41 9C 43
62 44 3D 41 92 B3 3A 18 A2 63 3A 18 30 4D 64 43
82 2E 22 00 87 12 4C 44 34 40 16 44 FE 47 2A 40
2F 83 8F 4E 00 00 B0 12 96 45 92 B3 DC 05 FD 27
1E 42 CC 05 B0 12 3A 45 30 4D 4A 42 04 4B 45 59
3F 00 30 40 80 44 18 42 CC 05 EA 3F 9C 44 03 4B
45 59 30 40 A6 44 82 93 76 18 09 20 1E 42 88 18
9F 42 8A 18 02 00 B2 40 62 45 54 45 24 3C 0D 12
3D 40 F4 44 19 42 86 18 99 42 74 18 12 00 3A 40
28 1D 8F 4A 02 00 BF 40 50 00 00 00 0E 43 19 42
74 18 02 3C F6 44 2D 83 82 99 76 18 16 24 58 49
00 1E 19 53 78 90 20 00 08 34 78 90 0A 00 F4 23
82 49 74 18 3D 41 2F 53 30 4D 8F 9E 00 00 58 24
CA 48 00 00 1A 53 1E 53 53 3C 0A 12 B0 12 16 50
3A 41 82 93 76 18 DB 23 ED 3F B2 40 13 00 CE 05
A2 B3 DC 05 FD 27 30 41 96 43 06 41 43 43 45 50
54 00 30 40 62 45 BC 43 08 28 41 43 43 45 50 54
29 00 0D 12 30 12 E8 45 3D 40 DC 45 3C 40 20 00
3B 40 0D 00 0A 4E 2E 4F 0A 5E 92 B3 DC 05 08 24
18 42 CC 05 30 12 B2 45 38 90 0A 00 04 20 21 53
39 40 A4 45 4D 15 B2 40 11 00 CE 05 A2 B3 DC 05
FD 27 30 41 12 D2 14 18 FD 3F 21 52 3A 17 18 42
CC 05 48 9B C2 27 48 9C 06 34 78 92 11 20 2E 9F
0F 24 1E 83 05 3C 0E 9A 03 24 CE 48 00 00 1E 53
82 48 CE 05 A2 B3 DC 05 FD 27 30 4D DE 45 2D 83
92 B3 DC 05 E4 23 FC 27 3E 8F B2 40 18 00 14 18
3D 41 30 4D 58 45 06 28 45 4D 49 54 29 00 08 4E
3E 4F E6 3F DA 40 04 45 4D 49 54 00 30 40 FE 45
06 46 04 45 43 48 4F 00 B2 40 82 48 D0 45 30 4D
70 44 06 4E 4F 45 43 48 4F 00 B2 40 30 4D D0 45
30 4D 00 00 04 57 4F 52 44 00 3C 40 34 18 39 4C
3A 4C 09 5A 3A 5C 28 4C 18 53 09 9A 1C 24 7E 9A
FC 27 1A 83 3B 40 60 00 C8 4C FF FF 09 9A 0C 24
7C 4A 4E 9C 09 24 18 53 4B 9C F6 2F 7C 90 7B 00
F3 2F 7C 80 20 00 F0 3F 1A 82 36 18 82 4A 38 18
F8 40 3F 00 00 00 1E 42 3A 18 08 8E 18 83 CE 48
00 00 30 4D 00 00 04 46 49 4E 44 00 0D 12 2F 83
3B 40 40 18 0C 4E 3E 4B 0E 93 22 24 58 4C 01 00
78 F0 1E 00 0E 58 2E 53 1E 4E FE FF 0E 93 F3 27
0A 4E 09 4C 68 49 7D 4A 7D F0 7F 00 6D 99 F4 23
19 53 F9 9A 00 00 F0 23 58 83 FA 23 6C 4C 5C D3
5C 53 0C 5E 6A 4E 1E 43 7A B0 80 00 01 20 2E 83
8F 4C 00 00 3D 41 30 4D 2F 53 2F 53 3E 4F 30 4D
6C 42 07 3E 4E 55 4D 42 45 52 0E 93 28 24 19 4F
04 00 18 4F 02 00 1B 42 50 18 2A 4F 6A 4A 7A 80
30 00 7A 90 0A 00 05 28 7A 90 11 00 18 28 7A 80
07 00 0A 9B 14 2C 82 49 D0 04 82 48 D2 04 82 4B
C8 04 19 42 E4 04 18 42 E6 04 09 5A 08 63 9F 53
00 00 1E 83 E2 23 8F 48 02 00 8F 49 04 00 30 4D
03 12 0D 12 3D 40 C2 47 3F 82 8F 4E 06 00 8F 43
04 00 8F 43 02 00 8F 4E 00 00 9F 53 00 00 6E 4E
2A 4F 12 12 50 18 79 4A 79 90 30 00 11 20 79 4A
79 90 58 00 04 20 B2 40 10 00 50 18 05 3C 79 90
42 00 B3 23 A2 43 50 18 AF 53 00 00 2E 83 AD 3F
79 90 2D 00 AA 23 B1 43 04 00 9F 53 00 00 1E 83
A4 3F C4 47 B2 41 50 18 2F 52 0E 93 1D 17 03 24
2F 53 0E F3 30 4D BF 4F 00 00 3E E3 05 20 BF E3
00 00 9F 53 00 00 3E E3 30 4D 12 46 07 45 58 45
43 55 54 45 0A 4E 3E 4F 00 4A 90 41 01 2C 1A 42
3A 18 A2 53 3A 18 8A 4E 00 00 3E 4F 30 4D FC 47
87 4C 49 54 45 52 41 4C 82 93 52 18 0A 24 1A 42
3A 18 A2 52 3A 18 BA 40 34 40 00 00 8A 4E 02 00
3E 4F 30 4D D0 43 05 43 4F 55 4E 54 2F 83 1E 53
8F 4E 00 00 5E 4E FF FF 30 4D F6 45 09 49 4E 54
45 52 50 52 45 54 82 4E 34 18 B2 4F 36 18 3E 4F
82 43 38 18 87 12 92 42 3A 46 6C 48 3D 40 78 48
15 23 3E 4F 3D 41 30 4D 7A 48 0A 4E 3E 4F 3D 40
90 48 6E 27 3D 40 66 48 1A E2 52 18 B8 27 B2 23
92 48 3E 4F 3D 40 66 48 BF 23 DE 53 00 00 3D 40
EC 4A CC 3F AA 41 04 51 55 49 54 00 31 40 04 1D
B2 40 00 1C 1E 18 82 43 52 18 87 12 32 44 04 0D
6F 6B 20 00 16 44 34 40 7E 1D 44 40 34 40 80 00
52 45 E0 43 56 48 34 40 90 1C CE 40 E2 41 32 44
0D 73 74 61 63 6B 20 65 6D 70 74 79 20 21 14 49
88 42 F4 40 F0 41 BC 48 32 44 04 0D 20 20 20 00
EC 41 C4 48 4A 45 05 41 42 4F 52 54 3F 40 92 1C
3E 4F CC 3F 8F 93 02 00 EF 26 82 43 4C 60 82 43
58 60 82 43 64 60 82 43 94 60 82 43 A0 60 82 43
AC 60 39 40 08 18 B2 49 54 45 B2 49 D0 45 B2 49
0E 46 B0 12 FC 4F A2 B3 DC 05 FD 27 B2 40 11 00
CE 05 92 C3 DC 05 38 40 A0 AA 39 42 19 83 FE 23
18 83 FB 23 92 B3 DC 05 F4 23 87 12 32 44 04 1B
5B 37 6D 00 16 44 16 44 32 44 04 1B 5B 30 6D 00
16 44 28 4D 6A 4D 70 4D 0C 49 06 49 86 41 42 4F
52 54 22 00 87 12 4C 44 34 40 14 49 FE 47 2A 40
9A 48 96 46 01 27 2F 83 8F 4E 00 00 3E 40 20 00
87 12 3A 46 9C 46 F0 41 A0 49 2A 40 98 42 81 5C
92 42 34 18 38 18 30 4D 87 12 64 44 92 42 3A 46
D2 49 08 4E 7A 4E 5A D3 5A 53 0A 58 19 42 3E 18
6E 4E 3E F0 1E 00 09 5E 82 48 20 18 82 49 22 18
82 4A 26 18 A8 49 FE FF 89 48 00 00 2A 52 82 4A
3A 18 3E 4F 3D 41 30 41 34 46 08 56 41 52 49 41
42 4C 45 00 B0 12 C8 49 BA 40 86 12 FC FF 30 4D
36 48 08 43 4F 4E 53 54 41 4E 54 00 B0 12 C8 49
BA 40 85 12 FC FF 8A 4E FE FF 3E 4F 30 4D 22 4A
06 43 52 45 41 54 45 00 B0 12 C8 49 BA 40 85 12
FC FF 8A 4A FE FF 30 4D EC 47 05 44 4F 45 53 3E
1A 42 26 18 BA 40 84 12 00 00 8A 4D 02 00 3D 41
30 4D 5A 4A 05 44 45 46 45 52 B0 12 C8 49 BA 40
30 40 FC FF 8A 40 FE FF 30 4D BE 4F 02 00 3E 4F
30 4D 4C 48 82 49 53 00 82 93 52 18 06 24 87 12
60 4B 34 40 8A 4A FE 47 2A 40 87 12 A6 49 8A 4A
2A 40 00 00 81 5B 82 43 52 18 30 4D BE 49 01 5D
B2 43 52 18 30 4D 82 9F 28 18 06 20 19 42 22 18
99 42 20 18 00 00 30 4D 87 12 32 44 0F 73 74 61
63 6B 20 6D 69 73 6D 61 74 63 68 21 1A 49 48 44
87 52 45 43 55 52 53 45 19 42 3A 18 99 42 26 18
00 00 A2 53 3A 18 30 4D B4 4A 01 3A B0 12 C8 49
BA 40 87 12 FC FF A2 83 3A 18 B2 43 52 18 99 48
FE FF 00 00 82 4F 28 18 30 4D 0A 4B 81 3B 82 93
52 18 46 27 87 12 34 40 2A 40 FE 47 C6 4A B6 4A
2A 40 94 4A 09 49 4D 4D 45 44 49 41 54 45 1A 42
20 18 FA D0 80 00 00 00 30 4D 2C 4B 83 5B 27 5D
87 12 A6 49 34 40 34 40 FE 47 FE 47 2A 40 A6 48
88 50 4F 53 54 50 4F 4E 45 00 87 12 92 42 3A 46
9C 46 54 40 F0 41 A0 49 AE 41 F0 41 9A 4B 34 40
34 40 FE 47 FE 47 34 40 FE 47 FE 47 2A 40 44 4B
82 49 46 00 2F 83 8F 4E 00 00 1E 42 3A 18 BE 40
F0 41 00 00 A2 52 3A 18 2E 53 30 4D 74 4A 84 45
4C 53 45 00 1A 42 3A 18 BA 40 EC 41 00 00 2A 52
82 4A 3A 18 8E 4A 00 00 2A 83 0E 4A 30 4D 10 44
84 54 48 45 4E 00 9E 42 3A 18 00 00 3E 4F 30 4D
40 4A 85 42 45 47 49 4E 30 40 88 43 E0 4B 85 55
4E 54 49 4C 39 40 F0 41 1A 42 3A 18 A2 52 3A 18
8A 49 00 00 8A 4E 02 00 3E 4F 30 4D 8C 49 85 41
47 41 49 4E 39 40 EC 41 EF 3F 0A 4A 85 57 48 49
4C 45 87 12 A4 4B 6E 40 2A 40 F0 4A 86 52 45 50
45 41 54 00 87 12 24 4C E6 4B 2A 40 BE 4B 82 44
4F 00 2F 83 8F 4E 00 00 1E 42 3A 18 BE 40 04 42
00 00 2E 53 82 4E 3A 18 A2 53 1E 18 1A 42 1E 18
8A 43 00 00 30 4D 10 48 84 4C 4F 4F 50 00 39 40
14 42 1A 42 3A 18 A2 52 3A 18 8A 49 00 00 8A 4E
02 00 1E 42 1E 18 A2 83 1E 18 2E 4E 0E 93 04 24
9E 42 3A 18 00 00 F5 3F 3E 4F 30 4D AE 44 85 2B
4C 4F 4F 50 39 40 24 42 E4 3F 78 4C 85 4C 45 41
56 45 1A 42 3A 18 BA 40 66 42 00 00 BA 40 EC 41
02 00 B2 50 06 00 3A 18 A2 53 1E 18 2A 52 19 42
1E 18 89 4A 00 00 30 4D BC 4C 04 4D 4F 56 45 00
0A 4E 38 4F 39 4F 3E 4F 0A 93 11 24 08 99 0F 24
06 2C F8 49 00 00 18 53 1A 83 FB 23 30 4D 08 5A
09 5A 19 83 18 83 E8 49 00 00 1A 83 FA 23 30 4D
34 40 40 18 FC 40 2A 40 84 12 20 4D C4 59 EE 62
A8 55 7E 55 8C 62 AE 4C 2A 52 FA 53 3A 61 7A 61
D2 54 E2 62 48 41 5C 4B BE 4A 3E 54 00 00 3A 40
0C 00 39 40 40 18 38 40 42 18 D9 3F 3A 40 0E 00
39 40 42 18 38 40 40 18 CC 3F 82 43 42 18 30 4D
92 42 40 18 3E 18 30 4D 2F 82 8F 4E 02 00 9F 42
50 18 00 00 0E 4C B2 40 10 00 50 18 87 12 50 43
7C 42 FC 40 1A 49 39 4F 18 42 3A 18 4A 4E 0E 48
C8 4A 00 00 18 53 AD 3F D2 C3 23 02 E2 B2 60 02
7C 20 92 43 6A 18 0A 5A 49 69 82 4A 6C 18 C2 49
6E 18 B0 12 08 4E 7A 93 FC 23 0A 43 39 40 05 00
D2 49 6A 18 4E 06 82 93 46 06 05 24 92 B3 6C 06
FD 27 C2 93 4C 06 59 83 F3 2F 19 83 0C 30 F2 43
4E 06 82 93 46 06 03 24 92 B3 6C 06 FD 27 00 3C
5A 92 4C 06 F2 23 30 41 19 43 3A 43 C2 4A 4E 06
82 93 46 06 05 24 92 B3 6C 06 FD 27 C2 93 4C 06
8A 10 19 83 F3 23 5A 42 4C 06 30 41 1C D3 F2 40
51 00 6F 18 B0 12 A8 4D 33 20 B0 12 08 4E 7A 90
FE FF FB 23 F2 43 4E 06 00 40 19 53 39 90 00 02
D9 42 4C 06 FF 1D F6 23 29 43 B0 12 0A 4E 3C C0
03 00 D2 D3 23 02 30 41 2C D3 F0 40 58 00 01 CA
B0 12 A8 4D 15 20 3A 40 FF FE 29 43 B0 12 0C 4E
D2 49 00 1E 4E 06 03 43 19 53 39 90 00 02 F8 23
39 40 03 00 B0 12 0A 4E 7A C0 E1 00 6A 92 DF 27
D2 D3 23 02 E2 B2 60 02 02 24 30 40 F4 62 8C 10
0C 5A 87 12 32 44 0B 3C 20 53 44 20 45 72 72 6F
72 21 78 4D 2C 42 D2 C3 23 02 B2 40 95 00 6A 18
82 43 6C 18 B2 40 00 40 6E 18 1A 43 B0 12 CC 4D
DF 23 0C 5C B2 40 87 AA 6A 18 92 43 6C 18 B2 40
00 48 6E 18 1A 43 B0 12 CC 4D C2 43 6B 18 82 43
6C 18 78 43 14 20 29 42 B0 12 0A 4E 0C 5C B2 40
00 77 6E 18 1A 43 B0 12 CC 4D B2 40 00 69 6E 18
0A 43 B0 12 CC 4D 0E 24 18 83 F1 23 B9 3F B2 40
00 41 6E 18 0A 43 B0 12 CC 4D 03 24 18 83 FB 23
AF 3F 0C 5C 0C 5C A2 43 6C 18 F2 40 50 00 6F 18
B0 12 C2 4D A5 23 92 D3 40 06 82 43 46 06 92 C3
40 06 0A 43 09 43 B0 12 2C 4E 3A 40 C6 01 1A 4A
00 1E 82 4A 54 18 09 43 B0 12 2C 4E D2 D3 23 02
0C 5C 38 40 00 1E F8 90 46 00 36 00 89 23 F8 90
36 00 3A 00 85 23 82 43 66 18 D2 48 13 00 64 18
D2 48 14 00 65 18 82 93 64 18 06 20 92 48 20 00
64 18 92 48 22 00 66 18 D2 48 0D 00 62 18 19 42
54 18 19 58 0E 00 82 49 56 18 82 49 68 18 1A 48
16 00 82 4A 58 18 09 5A 82 49 5A 18 09 5A 82 49
5C 18 92 43 80 18 39 50 20 00 82 49 5E 18 19 82
62 18 19 82 62 18 82 49 60 18 30 41 3A 40 05 00
39 40 90 18 89 43 02 00 39 50 14 00 1A 83 FA 23
82 43 86 18 30 41 82 43 74 18 B2 90 00 02 76 18
23 20 19 42 86 18 B9 80 00 02 0E 00 89 73 10 00
D9 53 03 00 D9 92 62 18 03 00 48 24 92 53 70 18
82 63 72 18 B2 40 00 02 76 18 89 93 10 00 07 20
B9 90 00 02 0E 00 03 2C 92 49 0E 00 76 18 1A 42
70 18 19 42 72 18 E2 3E 82 43 76 18 19 42 86 18
39 90 90 18 19 28 39 90 F4 18 16 2C E9 93 02 00
09 20 B0 12 CA 57 B0 12 F2 57 B2 40 FE 45 0E 46
19 42 86 18 C9 43 02 00 29 49 82 49 86 18 09 93
03 24 F9 93 02 00 03 24 82 43 86 18 30 41 92 49
12 00 74 18 92 49 0C 00 78 18 B0 12 12 51 58 49
03 00 82 58 70 18 82 63 72 18 BC 3F C9 43 03 00
92 49 0C 00 78 18 B0 12 FA 50 09 43 B0 12 2C 4E
19 42 86 18 18 42 7E 18 99 48 00 1E 0C 00 92 49
0C 00 78 18 B0 12 12 51 A5 3F 59 42 78 18 09 59
82 49 7E 18 5A 42 79 18 1A 52 56 18 82 4A 7C 18
30 41 82 43 72 18 92 42 5C 18 70 18 92 93 78 18
0F 24 92 42 60 18 70 18 92 42 78 18 C0 04 92 42
62 18 C8 04 92 52 E4 04 70 18 92 62 E6 04 72 18
30 41 09 93 07 24 F8 90 20 00 00 1E 03 20 18 53
19 83 F9 23 30 41 3C 42 3A 40 05 00 39 40 90 18
08 43 C9 93 02 00 0B 24 99 92 78 18 0A 00 2C 24
08 49 39 50 14 00 1A 83 F4 23 0C 5C 25 3C 0C 43
F8 93 02 00 03 20 98 52 38 18 12 00 82 49 86 18
89 48 00 00 99 43 02 00 99 42 70 18 04 00 99 42
72 18 06 00 18 42 82 18 89 48 08 00 99 42 78 18
0A 00 99 42 78 18 0C 00 99 48 1C 1E 0E 00 99 48
1E 1E 10 00 89 43 12 00 30 41 3C 4C 85 52 45 41
44 22 2A 43 2E 3C CC 51 04 52 45 41 44 00 2F 83
8F 4E 00 00 1E 42 86 18 B0 12 16 50 1E 82 86 18
30 4D 2C 4C 86 57 52 49 54 45 22 00 2A 42 19 3C
F4 51 05 57 52 49 54 45 B0 12 32 58 30 4D F2 4B
05 43 4C 4F 53 45 B0 12 68 50 30 4D 4E 4C 84 44
45 4C 22 00 3A 42 05 3C EA 4C 85 4C 4F 41 44 22
1A 43 2F 83 8F 4E 00 00 0E 4A 82 93 52 18 0D 24
87 12 34 40 34 40 FE 47 FE 47 4C 44 34 40 96 4D
FE 47 34 40 66 52 FE 47 2A 40 87 12 34 40 22 00
3A 46 64 52 3D 41 2F 83 92 42 70 18 8C 18 92 42
72 18 8E 18 78 4E 08 5E C8 43 00 00 92 42 80 18
78 18 CE 93 00 00 1C 43 7C 24 FE 90 3A 00 01 00
01 20 2E 53 FE 90 5C 00 00 00 06 20 1E 53 92 43
78 18 CE 93 00 00 65 24 82 4E 84 18 B0 12 12 51
BF 40 20 00 00 00 B0 12 5E 50 2C 43 0A 43 1E 42
84 18 08 4A 58 0E 08 58 82 48 82 18 C8 93 00 1E
58 24 39 42 F8 9E 00 1E 04 20 18 53 19 83 FA 23
1E 53 FE 90 2E 00 FF FF 19 24 39 50 03 00 B0 12
42 51 07 20 FE 90 5C 00 FF FF 2A 24 CE 93 FF FF
27 24 1A 53 3A 90 10 00 DA 23 92 53 70 18 82 63
72 18 9F 83 00 00 CF 23 2C 42 33 3C FE 90 2E 00
FE FF EF 27 B0 12 42 51 EC 23 39 40 03 00 F8 9E
00 1E 04 20 18 53 19 83 FA 23 0A 3C CE 93 FF FF
E0 23 FE 90 5C 00 FF FF DC 23 B0 12 42 51 D9 23
18 42 82 18 92 48 1A 1E 78 18 F8 B0 10 00 0B 1E
0E 24 82 93 78 18 02 20 92 43 78 18 CE 93 FF FF
98 23 92 42 78 18 80 18 2F 52 3E 4F 30 4D B0 12
56 51 2F 53 3A 4F 3E 4F 1A 93 32 21 0C 93 13 24
0D 4C 92 42 8C 18 70 18 92 42 8E 18 72 18 B0 12
5E 50 0C 4D 87 12 32 44 0B 3C 20 4F 70 65 6E 45
72 72 6F 72 78 4D F9 43 02 00 08 49 28 48 08 93
04 24 F8 93 02 00 FA 23 12 3C 92 42 34 18 88 18
92 82 38 18 88 18 92 42 36 18 8A 18 92 52 38 18
8A 18 B2 40 B6 44 54 45 92 42 34 18 38 18 B0 12
EE 50 82 43 74 18 30 4D 22 46 02 2E 53 00 87 12
34 40 3C 00 0C 46 E0 40 66 43 34 40 08 00 0C 46
34 40 3E 00 0C 46 E0 43 CE 40 34 40 92 1C E2 41
F0 41 3A 54 CE 40 34 40 90 1C 04 42 3A 42 F4 40
50 43 34 40 FE FF 24 42 2C 54 2A 40 02 47 01 3F
2E 4E 30 40 50 43 02 52 05 57 4F 52 44 53 87 12
7C 42 F4 40 34 40 10 00 7C 42 FC 40 34 40 40 18
44 40 B8 4B 6E 40 F4 40 54 40 F0 41 C8 54 34 40
10 00 34 40 00 00 04 42 D4 43 E0 43 3A 42 66 43
44 40 3A 42 44 40 22 41 22 41 F4 40 54 40 F0 41
BC 54 44 40 44 40 3C 48 34 40 7F 00 38 41 16 44
0A 41 34 40 0F 00 38 41 34 40 10 00 6E 40 2A 41
F6 43 34 40 02 00 2A 41 EC 41 8A 54 14 42 78 54
62 40 D4 43 EC 41 60 54 62 40 7C 42 FC 40 2A 40
FE 4B 03 55 2E 52 87 12 A8 40 9C 42 34 40 00 00
A8 42 00 43 1A 43 B4 40 80 40 2A 41 34 40 00 00
86 41 F6 43 16 44 2A 40 1E 52 04 44 55 4D 50 00
0D 12 12 12 50 18 B2 40 10 00 50 18 2E 5F BF F0
F0 FF 00 00 B0 12 2A 40 6E 40 04 42 D4 43 3A 42
34 40 07 00 D6 54 E0 43 3A 42 34 40 10 00 22 41
3A 42 04 42 3A 42 0A 41 34 40 03 00 D6 54 14 42
34 55 E0 43 E0 43 3A 42 34 40 10 00 22 41 3A 42
04 42 3A 42 0A 41 34 40 7F 00 38 41 34 40 7E 00
94 41 92 42 86 41 0C 46 14 42 52 55 34 40 10 00
24 42 1C 55 B4 40 7C 42 FC 40 2A 40 A4 49 03 46
41 54 1A 42 68 18 2F 83 8F 4E 00 00 0E 4A 09 43
B0 12 2C 4E 87 12 50 43 34 40 00 1E 34 40 00 02
00 55 D4 43 2A 40 FA 54 03 44 49 52 12 12 70 18
12 12 72 18 19 42 86 18 09 93 07 24 92 49 04 00
70 18 92 49 06 00 72 18 05 3C 92 42 80 18 78 18
B0 12 12 51 1A 42 70 18 B2 41 72 18 B2 41 70 18
D2 3F D8 51 07 53 44 5F 56 49 45 57 0A 4E CF 3F
2A 93 99 20 0C 93 D6 22 B0 12 EE 50 30 4D 2C 43
1A 42 68 18 09 43 B0 12 2C 4E 19 42 7E 18 09 11
0A 49 0A 59 8A 93 00 1E 0B 24 59 53 F9 23 92 53
68 18 92 92 68 18 5A 18 84 24 82 43 7E 18 E8 3F
0C 43 82 4A 7E 18 BA 43 00 1E 1A 42 68 18 82 4A
7C 18 1A 82 56 18 C2 4A 7B 18 C2 49 7A 18 30 41
1A 42 7C 18 09 43 B0 12 68 4E 1A 42 7C 18 1A 52
58 18 09 43 30 40 68 4E F2 B0 40 00 A2 04 29 20
F2 B0 10 00 A2 04 FC 27 5A 42 B0 04 4A 11 5B 42
B4 04 F2 40 20 00 C0 04 D2 42 B1 04 C8 04 1A 52
E4 04 D2 42 B5 04 C8 04 1B 52 E4 04 D2 42 B2 04
C0 04 B2 40 00 08 C8 04 1A 52 E4 04 92 42 B6 04
C0 04 B2 80 BC 07 C0 04 B2 40 00 02 C8 04 1B 52
E4 04 30 41 29 92 06 38 39 80 03 00 B0 12 14 57
39 40 03 00 7A 4B C8 4A 00 1E 0A 93 1B 24 3A 80
21 00 F8 3B 1A 83 F6 27 3A 82 F4 27 2A 82 EA 27
1A 83 F0 27 3A 80 0B 00 ED 27 2A 83 EB 27 2A 83
E9 27 3A 80 1E 00 E6 27 3A 80 20 00 E3 27 18 53
19 83 E0 23 09 93 06 24 F8 40 20 00 00 1E 18 53
19 83 FA 23 30 41 2A 92 11 21 2C 93 0C 24 0C 93
C6 24 87 12 32 44 0C 3C 20 57 72 69 74 65 45 72
72 6F 72 00 78 4D 82 43 7E 18 B0 12 FE 55 B0 12
50 56 92 42 7A 18 78 18 B0 12 5E 50 1C 43 1B 42
84 18 CB 93 00 00 E5 27 FB 90 2E 00 00 00 E1 27
39 40 0B 00 18 42 82 18 B0 12 D4 56 18 42 82 18
F8 40 20 00 0B 1E B0 12 68 56 88 43 0C 1E 88 4A
0E 1E 88 4B 10 1E 88 4B 12 1E 88 43 14 1E 98 42
78 18 1A 1E 88 43 1C 1E 88 43 1E 1E B0 12 E6 57
B0 12 56 51 0C 93 BD 23 E9 43 02 00 89 43 12 00
82 43 74 18 B0 12 12 51 BD 3C 19 42 86 18 1A 42
74 18 1A 89 12 00 89 5A 0E 00 89 63 10 00 89 43
12 00 82 43 74 18 1A 42 70 18 19 42 72 18 30 40
68 4E 19 42 86 18 1A 49 04 00 19 49 06 00 B0 12
2C 4E B0 12 68 56 19 42 86 18 18 49 08 00 88 4B
12 1E 88 4A 16 1E 88 4B 18 1E 98 49 0E 00 1C 1E
98 49 10 00 1E 1E 1A 49 04 00 19 49 06 00 30 40
68 4E B0 12 CA 57 19 42 86 18 D9 53 03 00 D9 92
62 18 03 00 05 24 92 53 70 18 82 63 72 18 30 41
12 12 7E 18 12 12 68 18 B0 12 FE 55 B2 91 68 18
07 24 B0 12 50 56 B0 12 FA 50 09 43 B0 12 2C 4E
38 41 98 42 7A 18 00 1E B0 12 50 56 92 42 7A 18
78 18 B0 12 FA 50 19 42 86 18 99 42 78 18 0C 00
C9 43 03 00 30 40 12 51 E4 55 07 53 44 5F 45 4D
49 54 B2 90 00 02 74 18 02 28 B0 12 32 58 19 42
74 18 C9 4E 00 1E 92 53 74 18 3E 4F 30 4D E9 43
02 00 92 49 0A 00 78 18 B0 12 FA 50 09 43 B0 12
2C 4E 1B 42 7C 18 1B 82 56 18 1A 42 7E 18 18 4A
00 1E 38 93 08 24 82 48 78 18 5B 92 79 18 EC 23
4A 48 0A 5A F4 3F 92 42 7C 18 68 18 82 4A 7E 18
C2 4B 79 18 0A 11 C2 4A 78 18 19 42 86 18 99 42
78 18 0C 00 5A 49 0F 00 7A C0 80 00 4A 11 C9 4A
03 00 38 40 FF 01 18 F9 0E 00 89 48 12 00 82 48
74 18 0A 12 B0 12 12 51 B2 51 70 18 82 63 72 18
B0 12 5E 50 B2 40 A2 58 0E 46 30 4D 0C 93 0D 20
18 42 82 18 F8 40 E5 00 00 1E 1A 49 04 00 19 49
06 00 B0 12 68 4E B0 12 68 50 30 4D 84 12 20 4D
B0 5F 5C 60 64 5F B0 60 2A 5F E4 5F 2E 5C 00 00
20 5F D0 5F 82 5F C0 5F 3E 5D 00 00 00 00 C2 60
4C 4D A0 4B 85 48 49 32 4C 4F 87 12 88 43 B8 4B
FE 47 B6 4A 4E 4D 6C 59 2A 40 10 52 04 43 4F 44
45 00 B0 12 C8 49 A2 82 3A 18 87 12 1E 4B EC 41
A4 59 1E 4C 03 41 53 4D 92 42 3E 18 2A 18 B2 40
70 59 3E 18 EE 3F 00 00 07 45 4E 44 43 4F 44 45
87 12 5C 4D C6 4A 2A 40 D8 59 06 45 4E 44 41 53
4D 00 92 42 2A 18 3E 18 F3 3F 00 00 05 43 4F 4C
4F 4E 1A 42 3A 18 BA 40 87 12 00 00 A2 53 3A 18
B2 43 52 18 30 40 5C 4D 00 00 05 4C 4F 32 48 49
1A 42 3A 18 BA 40 B0 12 00 00 BA 40 2A 40 02 00
A2 52 3A 18 ED 3F 38 40 34 18 39 48 2A 48 09 5A
1A 52 38 18 09 9A 03 24 7E 9A FC 27 1A 83 0E 4A
2A 88 82 4A 38 18 30 4D 87 12 3A 46 60 47 F0 41
64 5A 04 4A 9C 46 F0 41 A0 49 6C 5A 3D 41 29 4E
39 90 86 12 02 20 2E 53 30 41 39 90 85 12 03 20
1E 4E 02 00 30 41 39 90 84 12 01 20 2E 52 30 41
19 42 3A 18 A2 53 3A 18 89 4E 00 00 3E 40 29 00
12 12 38 18 92 53 38 18 B0 12 2A 40 3A 46 60 47
F0 41 C0 5A B6 5A 21 53 3E 90 10 00 B8 2D 30 41
C2 5A B2 41 38 18 22 D3 30 41 87 12 92 42 36 5A
D2 5A 82 43 30 18 92 42 3A 18 2E 18 A2 53 3A 18
0A 4E 3E 4F FA 90 23 00 00 00 34 20 92 53 38 18
B0 12 58 5A 0E 93 04 20 B2 40 00 03 30 18 27 3C
1E 93 04 20 B2 40 10 03 30 18 21 3C 2E 93 04 20
B2 40 20 03 30 18 1B 3C 2E 92 04 20 B2 40 20 02
30 18 15 3C 3E 92 04 20 B2 40 30 02 30 18 0F 3C
3E 93 04 20 B2 40 30 03 30 18 09 3C B2 40 30 00
30 18 19 42 3A 18 A2 53 3A 18 89 4E 00 00 3E 4F
3D 41 30 4D FA 90 26 00 00 00 08 20 B2 40 10 02
30 18 92 53 38 18 30 12 42 5B 76 3F FA 90 40 00
00 00 16 20 B2 40 20 00 30 18 92 53 38 18 B0 12
A0 5A 0A 20 B2 50 10 00 30 18 3E 40 2B 00 B0 12
A0 5A 2F 24 92 53 38 18 8E 10 82 5E 30 18 D7 3F
B0 12 A0 5A F9 23 B2 50 10 00 30 18 3E 40 28 00
B0 12 58 5A 30 12 92 5B 6B 3F 87 12 92 42 36 5A
C2 5B 0A 4E 3E 40 20 00 FA 90 26 00 00 00 04 20
B2 50 82 00 30 18 C5 3F B0 12 A0 5A DE 23 B2 50
80 00 30 18 3E 40 28 00 B0 12 58 5A B0 12 90 5A
D4 23 3D 40 A0 49 30 4D 00 00 04 52 45 54 49 00
87 12 34 40 00 13 FE 47 2A 40 34 40 2C 00 CA 5A
BA 5B 14 5C 2E 4E 1E D2 30 18 19 42 2E 18 95 3F
1A 5A 03 4D 4F 56 84 12 0A 5C 00 40 22 5C 05 4D
4F 56 2E 42 84 12 0A 5C 40 40 00 00 03 41 44 44
84 12 0A 5C 00 50 3C 5C 05 41 44 44 2E 42 84 12
0A 5C 40 50 48 5C 04 41 44 44 43 00 84 12 0A 5C
00 60 56 5C 06 41 44 44 43 2E 42 00 84 12 0A 5C
40 60 FA 5B 04 53 55 42 43 00 84 12 0A 5C 00 70
74 5C 06 53 55 42 43 2E 42 00 84 12 0A 5C 40 70
82 5C 03 53 55 42 84 12 0A 5C 00 80 92 5C 05 53
55 42 2E 42 84 12 0A 5C 40 80 FC 59 03 43 4D 50
84 12 0A 5C 00 90 AC 5C 05 43 4D 50 2E 42 84 12
0A 5C 40 90 EA 59 04 44 41 44 44 00 84 12 0A 5C
00 A0 C6 5C 06 44 41 44 44 2E 42 00 84 12 0A 5C
40 A0 B8 5C 03 42 49 54 84 12 0A 5C 00 B0 E4 5C
05 42 49 54 2E 42 84 12 0A 5C 40 B0 F0 5C 03 42
49 43 84 12 0A 5C 00 C0 FE 5C 05 42 49 43 2E 42
84 12 0A 5C 40 C0 0A 5D 03 42 49 53 84 12 0A 5C
00 D0 18 5D 05 42 49 53 2E 42 84 12 0A 5C 40 D0
00 00 03 58 4F 52 84 12 0A 5C 00 E0 32 5D 05 58
4F 52 2E 42 84 12 0A 5C 40 E0 64 5C 03 41 4E 44
84 12 0A 5C 00 F0 4C 5D 05 41 4E 44 2E 42 84 12
0A 5C 40 F0 92 42 CA 5A 6A 5D 1A 42 30 18 B2 F0
70 00 30 18 8A 10 3A F0 0F 00 82 DA 30 18 4A 3F
9E 5C 03 52 52 43 84 12 64 5D 00 10 82 5D 05 52
52 43 2E 42 84 12 64 5D 40 10 8E 5D 04 53 57 50
42 00 84 12 64 5D 80 10 9C 5D 03 52 52 41 84 12
64 5D 00 11 AA 5D 05 52 52 41 2E 42 84 12 64 5D
40 11 B6 5D 03 53 58 54 84 12 64 5D 80 11 00 00
04 50 55 53 48 00 84 12 64 5D 00 12 D0 5D 06 50
55 53 48 2E 42 00 84 12 64 5D 40 12 24 5D 04 43
41 4C 4C 00 84 12 64 5D 80 12 34 40 2C 00 CA 5A
BA 5B 04 5E 59 42 30 18 5A 42 31 18 82 4A 30 18
BE 90 00 15 00 00 02 20 0A 89 02 3C 09 8A 0A 49
3A 90 10 00 03 2C 5A 0E A8 3F 1A 53 0E 4A 87 12
66 43 32 44 0D 6F 75 74 20 6F 66 20 62 6F 75 6E
64 73 1A 49 DE 5D 05 50 55 53 48 4D 84 12 FA 5D
00 15 46 5E 04 50 4F 50 4D 00 84 12 FA 5D 00 17
92 42 36 5A 66 5E 82 43 30 18 92 42 3A 18 2E 18
A2 53 3A 18 92 53 38 18 3E 40 2C 00 B0 12 2A 40
3A 46 60 47 F0 41 A0 49 BA 5B 8C 5E 0A 4E 3E 4F
1A 83 2A 92 CA 2F 8A 10 5A 06 6F 3F C4 5D 04 52
52 43 4D 00 84 12 60 5E 50 00 9E 5E 04 52 52 41
4D 00 84 12 60 5E 50 01 AC 5E 04 52 4C 41 4D 00
84 12 60 5E 50 02 BA 5E 04 52 52 55 4D 00 84 12
60 5E 50 03 85 12 00 3C C8 5E 03 53 3E 3D 85 12
00 38 DA 5E 02 53 3C 00 85 12 00 34 54 5E 03 30
3E 3D 85 12 00 30 EE 5E 02 30 3C 00 85 12 00 30
00 00 02 55 3C 00 85 12 00 2C 02 5F 03 55 3E 3D
85 12 00 28 F8 5E 03 30 3C 3E 85 12 00 24 16 5F
02 30 3D 00 85 12 00 20 00 00 02 49 46 00 1A 42
3A 18 8A 4E 00 00 A2 53 3A 18 0E 4A 30 4D 0C 5F
04 54 48 45 4E 00 1A 42 3A 18 08 4E 3E 4F 09 48
29 53 0A 89 0A 11 3A 90 00 02 68 2F 88 DA 00 00
30 4D D4 5C 04 45 4C 53 45 00 1A 42 3A 18 BA 40
00 3C 00 00 A2 53 3A 18 2F 83 8F 4A 00 00 E3 3F
40 5F 05 55 4E 54 49 4C 3A 4F 08 4E 3E 4F 19 42
3A 18 2A 83 0A 89 0A 11 3A 90 00 FE 47 3B 3A F0
FF 03 08 DA 89 48 00 00 A2 53 3A 18 30 4D 58 5D
05 41 47 41 49 4E 87 12 D4 5E 88 5F 2A 40 00 00
05 57 48 49 4C 45 87 12 2E 5F 6E 40 2A 40 E4 5E
06 52 45 50 45 41 54 00 87 12 D4 5E 88 5F 46 5F
2A 40 00 00 03 4A 4D 50 87 12 A6 49 D4 5E 88 5F
2A 40 3E B0 00 10 03 20 3E E0 00 04 30 4D 3E 90
00 34 06 28 03 24 3E 40 00 34 30 4D 3E 40 00 38
30 4D 00 00 04 3F 4A 4D 50 00 87 12 F2 5F A6 49
6E 40 88 5F 2A 40 28 60 3D 41 08 4E 3E 4F 2A 48
0A 93 04 20 98 42 3A 18 00 00 30 4D 88 43 00 00
A4 3F EE 5D 03 42 57 31 84 12 26 60 00 00 44 60
03 42 57 32 84 12 26 60 00 00 50 60 03 42 57 33
84 12 26 60 00 00 68 60 3D 41 1A 42 3A 18 28 4E
08 93 08 20 BA 4F 00 00 A2 53 3A 18 8E 4A 00 00
3E 4F 30 4D 8E 43 00 00 61 3F 00 00 03 46 57 31
84 12 66 60 00 00 8C 60 03 46 57 32 84 12 66 60
00 00 98 60 03 46 57 33 84 12 66 60 00 00 A4 60
04 47 4F 54 4F 00 87 12 D4 5E A6 49 F4 47 2A 40
14 60 05 3F 47 4F 54 4F 87 12 F2 5F A6 49 F4 47
2A 40 D4 60 B2 4E 3A 18 3A 4E 82 4A 3C 18 2E 4E
3D 40 10 00 09 4A 08 49 29 83 18 48 FE FF 0E 98
FC 2B 89 48 00 00 1D 83 F6 23 2A 4A 0A 93 F0 23
3E 4F B0 12 2A 40 34 40 80 FF 88 43 2A 41 50 43
32 44 0B 62 79 74 65 73 20 66 72 65 65 20 16 44
2A 40 70 4B 09 50 57 52 5F 53 54 41 54 45 84 12
D2 60 50 64 90 59 EE 62 24 61 08 50 57 52 5F 48
45 52 45 00 92 42 3A 18 32 61 92 42 3C 18 34 61
92 42 20 18 36 61 EB 3F 9A 58 09 52 53 54 5F 53
54 41 54 45 92 42 16 18 32 61 92 42 18 18 34 61
92 42 1A 18 36 61 DB 3F 5A 61 08 52 53 54 5F 48
45 52 45 00 92 42 3A 18 16 18 92 42 3C 18 18 18
92 42 20 18 1A 18 D6 3F 48 54 04 57 49 50 45 00
82 43 80 FF 82 43 82 FF 39 40 0A 18 B2 49 D0 45
B2 49 0E 46 B2 49 D6 43 B2 49 EA 62 B2 40 EE 62
2E 4D B2 40 A8 55 30 4D B2 40 7E 55 32 4D B2 40
8C 62 34 4D B2 40 AE 4C 36 4D B2 40 2A 52 38 4D
B2 40 FA 53 3A 4D B2 40 3A 61 3C 4D B2 40 7A 61
3E 4D B2 40 D2 54 40 4D B2 40 E2 62 42 4D B2 40
48 41 44 4D B2 40 5C 4B 46 4D B2 40 BE 4A 48 4D
B2 40 3E 54 4A 4D B2 40 5C 60 72 59 B2 40 64 5F
74 59 B2 40 B0 60 76 59 B2 40 2A 5F 78 59 B2 40
E4 5F 7A 59 B2 40 2E 5C 7C 59 82 43 7E 59 B2 40
20 5F 80 59 B2 40 D0 5F 82 59 B2 40 82 5F 84 59
B2 40 C0 5F 86 59 B2 40 3E 5D 88 59 82 43 8A 59
82 43 8C 59 B2 40 C2 60 8E 59 B2 40 C4 59 2C 4D
B2 40 B0 5F 70 59 B2 40 50 64 3A 18 B2 40 90 59
3C 18 B2 40 EE 62 20 18 7D 3F 94 59 06 28 57 41
52 4D 29 00 B2 40 0A 00 50 18 1E 42 12 18 82 43
12 18 87 12 32 44 05 0D 1B 5B 37 6D 16 44 66 43
32 44 2B 20 46 61 73 74 46 6F 72 74 68 20 56 31
2E 30 20 31 36 4D 48 7A 20 28 43 29 20 4A 2E 4D
2E 54 68 6F 6F 72 65 6E 73 20 32 30 31 36 42 49
9A 61 04 57 41 52 4D 00 30 40 94 62 AC 59 04 43
4F 4C 44 00 B2 40 04 A5 20 01 B2 40 88 5A 5C 01
B2 D0 03 00 04 02 B2 40 FC FF 02 02 B2 C0 03 00
06 02 B2 43 22 02 B2 D3 26 02 B2 43 42 02 B2 D3
46 02 B2 43 62 02 B2 D3 66 02 F2 43 26 03 F2 D3
22 03 F2 40 A5 00 41 01 F2 40 10 00 40 01 D2 43
41 01 F2 40 A5 00 61 01 B2 40 48 00 62 01 82 43
66 01 39 40 80 00 B2 40 33 00 64 01 D2 43 61 01
92 D2 9E 01 12 18 A2 93 12 18 01 24 59 07 38 40
C2 A2 18 83 FE 23 19 83 FA 23 B2 42 B0 01 F2 D0
10 00 2A 03 F2 C0 40 00 A2 04 3A 40 FA 62 39 40
B4 FF 89 4A 00 00 29 53 FC 23 92 42 02 18 F0 FF
B2 40 18 00 14 18 31 40 04 1D 3F 40 92 1C 37 40
00 40 36 40 B4 40 35 40 08 40 34 40 14 40 39 40
08 18 B2 49 54 45 29 53 B2 49 0E 46 B2 49 D6 43
92 C3 30 01 18 42 12 18 D2 B3 01 02 04 20 38 E3
18 53 82 48 12 18 B2 40 81 00 C0 05 B2 40 11 00
C6 05 B2 40 00 4A C8 05 F2 D0 03 00 0D 02 92 C3
C0 05 92 D3 DA 05 3D 40 1C 64 38 90 0A 00 C8 26
38 90 16 00 C5 2E 28 93 8A 26 A4 3E 1E 64 E2 B2
60 02 62 23 B2 40 81 A9 40 06 B2 40 30 00 46 06
D2 D3 25 02 B2 D0 C0 04 0C 02 B2 C0 C0 04 06 02
92 C3 40 06 39 42 B0 12 0A 4E B0 12 C4 4E 4C 3F
@FF80
00 00 00 00 00 00 00 00
@FFB4
FA 62 FA 62 FA 62 FA 62 FA 62 FA 62 FA 62 FA 62
FA 62 FA 62 FA 62 FA 62 FA 62 FA 62 FA 62 FA 62
FA 62 FA 62 FA 62 FA 62 FA 62 FA 62 FA 62 FA 62
FA 62 FA 62 FA 62 FA 62 FA 62 FA 62 AA 45 FA 62
FA 62 FA 62 FA 62 FA 62 FA 62 FA 62
q
